{
  "project_info": {
    "project_number": "176279935587",
    "project_id": "poboy-2932a",
    "storage_bucket": "poboy-2932a.appspot.com"
  },
  "client": [
    {
      "client_info": {
        "mobilesdk_app_id": "1:176279935587:android:297a50069fd9a117f57656",
        "android_client_info": {
          "package_name": "io.pushboi.and"
        }
      },
      "oauth_client": [
        {
          "client_id": "176279935587-2fnsijjb630g8pfhmde8m164tv3muin8.apps.googleusercontent.com",
          "client_type": 1,
          "android_info": {
            "package_name": "io.pushboi.and",
            "certificate_hash": "7506572777e50800e23056f5f70ad4c1248a6c05"
          }
        },
        {
          "client_id": "176279935587-epv9if1unso9onisqjveauoil9jj2tjl.apps.googleusercontent.com",
          "client_type": 3
        }
      ],
      "api_key": [
        {
          "current_key": "AIzaSyCAYtV2DCW53ha0caBZGhZ2QnREOThppbU"
        }
      ],
      "services": {
        "appinvite_service": {
          "other_platform_oauth_client": [
            {
              "client_id": "176279935587-epv9if1unso9onisqjveauoil9jj2tjl.apps.googleusercontent.com",
              "client_type": 3
            },
            {
              "client_id": "176279935587-0c2hi0up5becrmbgjjt62qts21j72d9r.apps.googleusercontent.com",
              "client_type": 2,
              "ios_info": {
                "bundle_id": "io.pushboi.ios"
              }
            }
          ]
        }
      }
    }
  ],
  "configuration_version": "1"
}